50 1500
0.000000000000000000e+00
0.000000000000000000e+00
0.000000000000000000e+00
0.000000000000000000e+00
0.000000000000000000e+00
0.000000000000000000e+00
0.000000000000000000e+00
0.000000000000000000e+00
0.000000000000000000e+00
0.000000000000000000e+00
0.000000000000000000e+00
0.000000000000000000e+00
0.000000000000000000e+00
0.000000000000000000e+00
6.673907226393414107e-06
1.734337076802830175e-04
1.647804654638367495e-04
1.592090793589784543e-04
1.565669552298505868e-04
1.624398458001042786e-04
1.725257855230777424e-04
1.980533338931222802e-04
2.237396632301090775e-04
2.070433955770229232e-04
2.047457554473321780e-04
1.978205375085790956e-04
1.885770893536208503e-04
1.928008703640204360e-04
2.063115299378451631e-04
2.026780570325601523e-04
2.098433958446920163e-04
2.224598655709381317e-04
2.010470068082567186e-04
1.883110442296301919e-04
1.741405501226736617e-04
1.512519934395997138e-04
1.359556689075110006e-04
1.174436351257825535e-04
1.011449443557470632e-04
1.003995284387548706e-05
0.000000000000000000e+00
0.000000000000000000e+00
0.000000000000000000e+00
0.000000000000000000e+00
0.000000000000000000e+00
0.000000000000000000e+00
0.000000000000000000e+00
0.000000000000000000e+00
0.000000000000000000e+00
0.000000000000000000e+00
