230 9200
0.000000000000000000e+00
0.000000000000000000e+00
0.000000000000000000e+00
0.000000000000000000e+00
0.000000000000000000e+00
0.000000000000000000e+00
0.000000000000000000e+00
0.000000000000000000e+00
0.000000000000000000e+00
0.000000000000000000e+00
0.000000000000000000e+00
0.000000000000000000e+00
0.000000000000000000e+00
0.000000000000000000e+00
0.000000000000000000e+00
0.000000000000000000e+00
0.000000000000000000e+00
0.000000000000000000e+00
0.000000000000000000e+00
0.000000000000000000e+00
0.000000000000000000e+00
0.000000000000000000e+00
0.000000000000000000e+00
0.000000000000000000e+00
0.000000000000000000e+00
0.000000000000000000e+00
0.000000000000000000e+00
0.000000000000000000e+00
0.000000000000000000e+00
0.000000000000000000e+00
0.000000000000000000e+00
0.000000000000000000e+00
0.000000000000000000e+00
0.000000000000000000e+00
0.000000000000000000e+00
0.000000000000000000e+00
0.000000000000000000e+00
0.000000000000000000e+00
0.000000000000000000e+00
0.000000000000000000e+00
0.000000000000000000e+00
0.000000000000000000e+00
0.000000000000000000e+00
0.000000000000000000e+00
0.000000000000000000e+00
0.000000000000000000e+00
0.000000000000000000e+00
0.000000000000000000e+00
0.000000000000000000e+00
0.000000000000000000e+00
0.000000000000000000e+00
0.000000000000000000e+00
0.000000000000000000e+00
0.000000000000000000e+00
0.000000000000000000e+00
0.000000000000000000e+00
0.000000000000000000e+00
0.000000000000000000e+00
0.000000000000000000e+00
0.000000000000000000e+00
0.000000000000000000e+00
0.000000000000000000e+00
0.000000000000000000e+00
0.000000000000000000e+00
0.000000000000000000e+00
0.000000000000000000e+00
0.000000000000000000e+00
0.000000000000000000e+00
0.000000000000000000e+00
0.000000000000000000e+00
0.000000000000000000e+00
0.000000000000000000e+00
0.000000000000000000e+00
0.000000000000000000e+00
0.000000000000000000e+00
0.000000000000000000e+00
0.000000000000000000e+00
0.000000000000000000e+00
0.000000000000000000e+00
0.000000000000000000e+00
0.000000000000000000e+00
0.000000000000000000e+00
0.000000000000000000e+00
0.000000000000000000e+00
0.000000000000000000e+00
0.000000000000000000e+00
0.000000000000000000e+00
0.000000000000000000e+00
0.000000000000000000e+00
0.000000000000000000e+00
0.000000000000000000e+00
0.000000000000000000e+00
0.000000000000000000e+00
0.000000000000000000e+00
0.000000000000000000e+00
0.000000000000000000e+00
0.000000000000000000e+00
0.000000000000000000e+00
0.000000000000000000e+00
0.000000000000000000e+00
0.000000000000000000e+00
0.000000000000000000e+00
0.000000000000000000e+00
0.000000000000000000e+00
0.000000000000000000e+00
0.000000000000000000e+00
0.000000000000000000e+00
0.000000000000000000e+00
0.000000000000000000e+00
0.000000000000000000e+00
0.000000000000000000e+00
0.000000000000000000e+00
4.464256056972410467e-07
4.920217452309941548e-07
5.825344815425159915e-07
7.008903535579486308e-07
1.077480445647259972e-06
1.526666626082827528e-06
1.818815122479636500e-06
2.018677949544820690e-06
2.005543949398441098e-06
1.925904845383709055e-06
1.828709639491850945e-06
1.756264149072702208e-06
1.588094063832900675e-06
1.405091172847078112e-06
1.339373166135644391e-06
1.226769448563412834e-06
1.092605119806316037e-06
1.002979573645545923e-06
8.829936736012149635e-07
7.663851835305657866e-07
6.891610749489451356e-07
6.515506267990144133e-07
6.075563991776231622e-07
5.980036671071462753e-07
5.777078931125058108e-07
5.677421646413206615e-07
5.484818119363407165e-07
4.898276062850167770e-07
4.723789439670749620e-07
4.302917765212324781e-07
3.675181531518500531e-07
3.180582666704701342e-07
2.208067257960157904e-07
1.428135441397378421e-07
1.115902311634798465e-07
1.068686393453370296e-07
1.235690453454264588e-07
1.293630566075979715e-07
1.220736219495483258e-07
1.084159012912398193e-07
8.875775927054741121e-08
6.470422805962073154e-08
5.475890130818397029e-08
4.462003253544039184e-08
3.528368369328123565e-08
2.228615668601604571e-08
2.125720618622087093e-08
1.814268244042811866e-08
1.354162258586397821e-08
1.162502853211510599e-08
1.077068164570427032e-08
1.003672815208152326e-08
1.011299662590278025e-08
1.038258223880551272e-08
7.838559543718416206e-09
5.067693751139185135e-09
4.913061835489195437e-09
4.761724140949369054e-09
3.044973918760326512e-09
2.279897290627057168e-09
1.802771197349926254e-09
1.514691673929204962e-09
2.290036414881933966e-09
2.176864824857619630e-09
2.324373912131133400e-09
1.957712349281418461e-09
2.609091315565912616e-09
2.663247445337106263e-09
1.646086301218361054e-09
1.953537352499027030e-09
2.576171919222921799e-09
2.548094030641825980e-09
1.575295429427995549e-10
8.570712026510770418e-10
7.708001628315344194e-10
0.000000000000000000e+00
0.000000000000000000e+00
0.000000000000000000e+00
0.000000000000000000e+00
0.000000000000000000e+00
0.000000000000000000e+00
0.000000000000000000e+00
0.000000000000000000e+00
0.000000000000000000e+00
0.000000000000000000e+00
0.000000000000000000e+00
0.000000000000000000e+00
0.000000000000000000e+00
0
0
0
0
0
0
0
0
0
0
0
0
0
0
0
0
0
0
0
0
0
0
0
0
0
0
0
0
0
0
